<?xml version="1.0" encoding="utf-8"?>
<svg xmlns="http://www.w3.org/2000/svg" xmlns:xlink="http://www.w3.org/1999/xlink" style="margin: auto; background: none; display: block; shape-rendering: auto;" width="184px" height="184px" viewBox="0 0 100 100" preserveAspectRatio="xMidYMid">
<circle cx="50" cy="50" r="0" fill="none" stroke="#cc004c" stroke-width="2">
  <animate attributeName="r" repeatCount="indefinite" dur="0.9615384615384615s" values="0;40" keyTimes="0;1" keySplines="0 0.2 0.8 1" calcMode="spline" begin="0s"></animate>
  <animate attributeName="opacity" repeatCount="indefinite" dur="0.9615384615384615s" values="1;0" keyTimes="0;1" keySplines="0.2 0 0.8 1" calcMode="spline" begin="0s"></animate>
</circle><circle cx="50" cy="50" r="0" fill="none" stroke="#6460aa" stroke-width="2">
  <animate attributeName="r" repeatCount="indefinite" dur="0.9615384615384615s" values="0;40" keyTimes="0;1" keySplines="0 0.2 0.8 1" calcMode="spline" begin="-0.4807692307692307s"></animate>
  <animate attributeName="opacity" repeatCount="indefinite" dur="0.9615384615384615s" values="1;0" keyTimes="0;1" keySplines="0.2 0 0.8 1" calcMode="spline" begin="-0.4807692307692307s"></animate>
</circle>
<!-- [ldio] generated by https://loading.io/ --></svg>